<svg width="20" height="20" viewBox="0 0 20 20" fill="none" xmlns="http://www.w3.org/2000/svg">
<g clip-path="url(#clip0)">
<path d="M0.645634 2.29416L4.40632 10.037H19.3575L0.645634 2.29416Z" fill="white"/>
<path d="M0.891417 18.3741L19.6054 10.6329C19.8445 10.5315 20 10.2968 20 10.037C20 9.77709 19.8445 9.54253 19.6054 9.44108L0.891417 1.69979C0.643938 1.59771 0.359125 1.65899 0.175604 1.85385C-0.00807381 2.04872 -0.0521832 2.33684 0.0645466 2.5777L2.74853 8.10129H4.18314L1.96734 3.54099L16.1114 9.39177H3.37533L3.68866 10.037L0.0645466 17.4963C-0.0521832 17.7372 -0.00807381 18.0253 0.175604 18.2202C0.359125 18.415 0.643938 18.4763 0.891417 18.3741ZM4.80995 10.6822L16.1114 10.6822L1.96734 16.5329L4.80995 10.6822Z" fill="#0071B8"/>
</g>
<defs>
<clipPath id="clip0">
<rect x="20" width="20" height="20" transform="rotate(90 20 0)" fill="white"/>
</clipPath>
</defs>
</svg>
