<svg width="60" height="60" viewBox="0 0 60 60" fill="none" xmlns="http://www.w3.org/2000/svg">
<path d="M36.4912 33.632C39.1468 32.1887 41.2457 29.9016 42.4561 27.1321C43.6665 24.3626 43.9194 21.2687 43.1748 18.3394C42.4302 15.4101 40.7306 12.8125 38.3447 10.9571C35.9587 9.10177 33.0224 8.09448 30 8.09448C26.9776 8.09448 24.0413 9.10177 21.6553 10.9571C19.2694 12.8125 17.5698 15.4101 16.8252 18.3394C16.0806 21.2687 16.3335 24.3626 17.5439 27.1321C18.7543 29.9016 20.8532 32.1887 23.5088 33.632C11.625 35.6608 2.8125 43.1251 2.8125 52.0314H57.1875C57.1875 43.1251 48.375 35.6608 36.4912 33.632Z" fill="white"/>
<path d="M40.8516 32.7001C43.0393 30.5466 44.5368 27.7909 45.1534 24.7836C45.7701 21.7764 45.4781 18.6537 44.3145 15.813C43.1509 12.9722 41.1684 10.5419 38.6193 8.83142C36.0702 7.12091 33.0698 6.20752 30 6.20752C26.9302 6.20752 23.9298 7.12091 21.3807 8.83142C18.8316 10.5419 16.8491 12.9722 15.6855 15.813C14.5219 18.6537 14.2299 21.7764 14.8466 24.7836C15.4632 27.7909 16.9607 30.5466 19.1484 32.7001C10.695 35.1114 4.42125 40.2076 2.02031 46.4064H6.10219C8.84719 41.1076 15.3834 36.9226 23.8209 35.4808C24.2047 35.4153 24.5587 35.232 24.8336 34.9563C25.1085 34.6806 25.2907 34.3261 25.355 33.9421C25.4193 33.5581 25.3625 33.1636 25.1924 32.8134C25.0224 32.4632 24.7475 32.1746 24.4059 31.9876C22.1155 30.7444 20.3048 28.7732 19.2601 26.3856C18.2155 23.998 17.9965 21.3304 18.6379 18.8044C19.2792 16.2784 20.7442 14.0383 22.8013 12.4383C24.8584 10.8382 27.3901 9.9695 29.9963 9.9695C32.6024 9.9695 35.1341 10.8382 37.1912 12.4383C39.2483 14.0383 40.7133 16.2784 41.3546 18.8044C41.996 21.3304 41.777 23.998 40.7324 26.3856C39.6877 28.7732 37.877 30.7444 35.5866 31.9876C35.245 32.1746 34.9701 32.4632 34.8001 32.8134C34.63 33.1636 34.5732 33.5581 34.6375 33.9421C34.7018 34.3261 34.884 34.6806 35.1589 34.9563C35.4338 35.232 35.7878 35.4153 36.1716 35.4808C46.5319 37.2489 54.0178 43.142 55.1606 50.1564H1.06406C0.983682 50.7782 0.941416 51.4044 0.9375 52.0314C0.9375 52.5287 1.13504 53.0056 1.48667 53.3572C1.83831 53.7089 2.31522 53.9064 2.8125 53.9064H57.1875C57.6848 53.9064 58.1617 53.7089 58.5133 53.3572C58.865 53.0056 59.0625 52.5287 59.0625 52.0314C59.0625 43.3792 51.7556 35.8126 40.8516 32.7001Z" fill="#0071B8"/>
</svg>
