<svg width="60" height="60" viewBox="0 0 60 60" fill="none" xmlns="http://www.w3.org/2000/svg">
<path d="M30 50.1562V57.1875H57.1875V30H50.1562C50.1562 31.7405 49.4648 33.4097 48.2341 34.6404C47.0034 35.8711 45.3342 36.5625 43.5938 36.5625C41.8533 36.5625 40.1841 35.8711 38.9534 34.6404C37.7227 33.4097 37.0312 31.7405 37.0312 30H30V37.0312C28.2595 37.0312 26.5903 37.7227 25.3596 38.9534C24.1289 40.1841 23.4375 41.8533 23.4375 43.5938C23.4375 45.3342 24.1289 47.0034 25.3596 48.2341C26.5903 49.4648 28.2595 50.1562 30 50.1562Z" fill="white"/>
<path d="M30 9.84375V2.8125H2.8125V30H9.84375C9.84375 28.2595 10.5352 26.5903 11.7659 25.3596C12.9966 24.1289 14.6658 23.4375 16.4062 23.4375C18.1467 23.4375 19.8159 24.1289 21.0466 25.3596C22.2773 26.5903 22.9688 28.2595 22.9688 30H30V22.9688C31.7405 22.9688 33.4097 22.2773 34.6404 21.0466C35.8711 19.8159 36.5625 18.1467 36.5625 16.4062C36.5625 14.6658 35.8711 12.9966 34.6404 11.7659C33.4097 10.5352 31.7405 9.84375 30 9.84375Z" fill="white"/>
<path d="M35.625 0.9375V4.6875H55.3125V28.125H48.2812V30C48.2812 31.2432 47.7874 32.4355 46.9083 33.3146C46.0292 34.1936 44.837 34.6875 43.5938 34.6875C42.3505 34.6875 41.1583 34.1936 40.2792 33.3146C39.4001 32.4355 38.9062 31.2432 38.9062 30V28.125H31.875V24.6337C33.74 24.2097 35.4057 23.1645 36.5988 21.6697C37.7919 20.1748 38.4418 18.3189 38.4418 16.4062C38.4418 14.4936 37.7919 12.6377 36.5988 11.1428C35.4057 9.64796 33.74 8.60282 31.875 8.17875V0.9375H0.9375V4.6875H28.125V11.7188H30C31.2432 11.7188 32.4355 12.2126 33.3146 13.0917C34.1936 13.9708 34.6875 15.163 34.6875 16.4062C34.6875 17.6495 34.1936 18.8417 33.3146 19.7208C32.4355 20.5999 31.2432 21.0938 30 21.0938H28.125V28.125H24.6337C24.2097 26.26 23.1645 24.5943 21.6697 23.4012C20.1748 22.2081 18.3189 21.5582 16.4062 21.5582C14.4936 21.5582 12.6377 22.2081 11.1428 23.4012C9.64796 24.5943 8.60282 26.26 8.17875 28.125H4.6875V8.4375H0.9375V31.875H11.7188V30C11.7188 28.7568 12.2126 27.5645 13.0917 26.6854C13.9708 25.8064 15.163 25.3125 16.4062 25.3125C17.6495 25.3125 18.8417 25.8064 19.7208 26.6854C20.5999 27.5645 21.0938 28.7568 21.0938 30V31.875H28.125V35.3662C26.26 35.7903 24.5943 36.8355 23.4012 38.3303C22.2081 39.8252 21.5582 41.6811 21.5582 43.5938C21.5582 45.5064 22.2081 47.3623 23.4012 48.8572C24.5943 50.352 26.26 51.3972 28.125 51.8213V55.3125H4.6875V35.625H0.9375V59.0625H59.0625V55.3125H31.875V48.2812H30C28.7568 48.2812 27.5645 47.7874 26.6854 46.9083C25.8064 46.0292 25.3125 44.837 25.3125 43.5938C25.3125 42.3505 25.8064 41.1583 26.6854 40.2792C27.5645 39.4001 28.7568 38.9062 30 38.9062H31.875V31.875H35.3662C35.7903 33.74 36.8355 35.4057 38.3303 36.5988C39.8252 37.7919 41.6811 38.4418 43.5938 38.4418C45.5064 38.4418 47.3623 37.7919 48.8572 36.5988C50.352 35.4057 51.3972 33.74 51.8213 31.875H55.3125V51.5625H59.0625V0.9375H35.625Z" fill="#0071B8"/>
</svg>
